Bailee Dastugue
…
## ── Attaching packages ───────────────────────────────────────── tidyverse 1.3.0 ──

## ✔ ggplot2 3.2.1     ✔ stringr 1.4.0
## ✔ tibble  2.1.3     ✔ forcats 0.4.0
## ✔ purrr   0.3.3

## ── Conflicts ──────────────────────────────────────────── tidyverse_conflicts() ──
## ✖ dplyr::filter() masks stats::filter()
## ✖ dplyr::lag()    masks stats::lag()

lexi

## # A tibble: 93,874 x 2
##    Word                connotation
##    <chr>               <chr>      
##  1 a-ok_adjective      neutral    
##  2 a-okay_adjective    neutral    
##  3 a-one_adjective     positive   
##  4 a_adjective         neutral    
##  5 a_noun              neutral    
##  6 aa_noun             neutral    
##  7 aaa_noun            negative   
##  8 aaa_propernoun      positive   
##  9 aaah_propernoun     positive   
## 10 aaarated_propernoun positive   
## # … with 93,864 more rows
…
list = []
for c in counts:
   new = (c, counts[c])
   list.append(new)

times <- py$list %>% as.data.frame() %>% select_if(is.integer) %>% pivot_longer(contains(c("X")), names_to = "name", values_to = "times") %>% mutate(id = row_number()) %>% select(-name)
times

## # A tibble: 219 x 2
##    times    id
##    <int> <int>
##  1     1     1
##  2     1     2
##  3     2     3
##  4     2     4
##  5     1     5
##  6     1     6
##  7     1     7
##  8     1     8
##  9     1     9
## 10     1    10
## # … with 209 more rows

words <- py$list %>% as.data.frame() %>% select_if(is.factor) %>% pivot_longer(contains(c("X")), names_to = "name", values_to = "word") %>% mutate(id = row_number()) %>% select(-name)
words

## # A tibble: 219 x 2
##    word       id
##    <fct>   <int>
##  1 precise     1
##  2 summer      2
##  3 all         3
##  4 just        4
##  5 bris        5
##  6 soon        6
##  7 foul        7
##  8 held        8
##  9 touch       9
## 10 statues    10
## # … with 209 more rows

full <- words %>% left_join(times) %>% select(-id)

## Joining, by = "id"

full %>% left_join(lexi2)

## Joining, by = "word"

## Warning: Column `word` joining factors with different levels, coercing to
## character vector

## # A tibble: 378 x 4
##    word    times type       conn    
##    <chr>   <int> <fct>      <fct>   
##  1 precise     1 adjective  positive
##  2 summer      1 noun       neutral 
##  3 summer      1 propernoun neutral 
##  4 all         2 noun       neutral 
##  5 all         2 propernoun positive
##  6 just        2 adjective  positive
##  7 bris        1 noun       neutral 
##  8 soon        1 <NA>       <NA>    
##  9 foul        1 adjective  negative
## 10 foul        1 propernoun negative
## # … with 368 more rows
…
lexi3 

## # A tibble: 76,134 x 2
##    word     value
##    <fct>    <dbl>
##  1 a            0
##  2 a-ok         0
##  3 a-okay       0
##  4 a-one        1
##  5 aa           0
##  6 aaa          0
##  7 aaah         1
##  8 aaarated     1
##  9 aac          1
## 10 aachen       0
## # … with 76,124 more rows

shalom <- full %>% left_join(lexi3)

## Joining, by = "word"

## Warning: Column `word` joining factors with different levels, coercing to
## character vector

shalom

## # A tibble: 219 x 3
##    word    times  value
##    <chr>   <int>  <dbl>
##  1 precise     1  1    
##  2 summer      1  0    
##  3 all         2  0.5  
##  4 just        2  1    
##  5 bris        1  0    
##  6 soon        1 NA    
##  7 foul        1 -1    
##  8 held        1 -1    
##  9 touch       1  0.333
## 10 statues     1 NA    
## # … with 209 more rows
…
