Bailee Dastugue
…
library(dplyr)
library(tidyr)
library(tidyverse)
library(ggplot2)
cardio1 <- cardio %>% mutate_at(vars(age), funs(age/365)) %>% round(2) %>% rename(systolic_bp = ap_hi) %>% rename(diastolic_bp = ap_lo) 
cardio2<-cardio1 %>% mutate(cholesterol = ifelse(cholesterol == 1, "normal", ifelse(cholesterol == 2, "above normal", "well above normal"))) %>% mutate(gluc = ifelse(gluc == 1, "normal", ifelse(gluc == 2, "above normal", "well above normal"))) %>% rename(glucose = gluc) # categorical variables
cardio3 <- cardio2 %>% mutate(gender = ifelse(gender== 1, "female", "male")) 
cardio4 <- cardio3 %>% mutate(MAP = (systolic_bp/3) + ((2*diastolic_bp)/3)) %>% mutate(height = height/100) %>% mutate(BMI = weight/(height * height)) %>% dplyr::select(MAP, BMI, id) %>% round(2)
cardio5 <- cardio3 %>% full_join(cardio4, by = "id")
cardio6 <- cardio5 %>% dplyr::select(-1, -systolic_bp, -diastolic_bp) %>% rename(cardiac_disease = cardio) %>% filter(MAP < 150 & MAP > 60 & BMI < 50) %>% head(1000) 
cardio6

## # A tibble: 1,000 x 12
##      age gender height weight cholesterol glucose smoke  alco active
##    <dbl> <chr>   <dbl>  <dbl> <chr>       <chr>   <dbl> <dbl>  <dbl>
##  1  50.4 male      168     62 normal      normal      0     0      1
##  2  55.4 female    156     85 well above… normal      0     0      1
##  3  51.7 female    165     64 well above… normal      0     0      0
##  4  48.3 male      169     82 normal      normal      0     0      1
##  5  47.9 female    156     56 normal      normal      0     0      0
##  6  60.0 female    151     67 above norm… above …     0     0      0
##  7  60.6 female    157     93 well above… normal      0     0      1
##  8  61.9 male      178     95 well above… well a…     0     0      1
##  9  48.4 female    158     71 normal      normal      0     0      1
## 10  54.3 female    164     68 normal      normal      0     0      0
## # … with 990 more rows, and 3 more variables: cardiac_disease <dbl>,
## #   MAP <dbl>, BMI <dbl>

cardio6$MAP_c <- cardio6$MAP - mean(cardio6$MAP)
cardio6$BMI_c <- cardio6$BMI - mean(cardio6$BMI)

cardio8<-cardio6 %>% mutate(cholesterol = ifelse(cholesterol == "normal", 1, ifelse(cholesterol == "above normal",2 , 3))) %>% mutate(glucose = ifelse(glucose == "normal", 1, ifelse(glucose == "above normal", 2, 3))) %>% mutate(gender = ifelse(gender == "female", 1, 2)) # cat back to num ; female = 1 / male =2
cardio8 <- cardio8 %>% mutate_if(is.factor, as.numeric)
cardio8

## # A tibble: 1,000 x 14
##      age gender height weight cholesterol glucose smoke  alco active
##    <dbl>  <dbl>  <dbl>  <dbl>       <dbl>   <dbl> <dbl> <dbl>  <dbl>
##  1  50.4      2    168     62           1       1     0     0      1
##  2  55.4      1    156     85           3       1     0     0      1
##  3  51.7      1    165     64           3       1     0     0      0
##  4  48.3      2    169     82           1       1     0     0      1
##  5  47.9      1    156     56           1       1     0     0      0
##  6  60.0      1    151     67           2       2     0     0      0
##  7  60.6      1    157     93           3       1     0     0      1
##  8  61.9      2    178     95           3       3     0     0      1
##  9  48.4      1    158     71           1       1     0     0      1
## 10  54.3      1    164     68           1       1     0     0      0
## # … with 990 more rows, and 5 more variables: cardiac_disease <dbl>,
## #   MAP <dbl>, BMI <dbl>, MAP_c <dbl>, BMI_c <dbl>
…
